ALEPH_1991_S2435284
ALEPH_1996_S3196992
ALEPH_1996_S3486095
ALEPH_1999_S4193598
ALEPH_2004_S5765862
ALICE_2010_S8624100
ALICE_2010_S8625980
ALICE_2010_S8706239
ALICE_2011_S8909580
ALICE_2011_S8945144
ATLAS_2010_CONF_2010_049
ATLAS_2010_S8591806
ATLAS_2010_S8817804
ATLAS_2010_S8894728
ATLAS_2010_S8914702
ATLAS_2010_S8918562
ATLAS_2010_S8919674
ATLAS_2011_CONF_2011_090
ATLAS_2011_CONF_2011_098
ATLAS_2011_I919017
ATLAS_2011_I925932
ATLAS_2011_I926145
ATLAS_2011_I944826
ATLAS_2011_S8924791
ATLAS_2011_S8971293
ATLAS_2011_S8983313
ATLAS_2011_S8994773
ATLAS_2011_S9002537
ATLAS_2011_S9019561
ATLAS_2011_S9041966
ATLAS_2011_S9108483
